Unit_03_Project
…
Mode <- function(x) {
  ux <- unique(x) 
  ux[which.max(tabulate(match(x, ux)))]}

cleaned_iris_chromos_mode <- cleaned_iris_chromos %>% 
  group_by(species) %>% 
 summarize(across(where(is.numeric), Mode))

cleaned_iris_chromos_mode %>% 
  print(n = 20) 

## # A tibble: 211 × 3
##    species        parsed_n sporophytic
##    <chr>             <dbl>       <dbl>
##  1 acutiloba            10          20
##  2 afghanica            11          22
##  3 aitchisonii          17          34
##  4 alberti              12          24
##  5 albicans             22          44
##  6 albomarginata        25          50
##  7 anguifuga            17          34
##  8 antilibanotica       10          20
##  9 aphylla              24          48
## 10 arenaria             11          22
## 11 assadiana            10          20
## 12 atrofusca            10          20
## 13 atropatana            9          18
## 14 atropurpurea         10          20
## 15 aucheri              12          24
## 16 auranitica           10          20
## 17 barnumiae            10          20
## 18 basaltica            10          20
## 19 bicapitata           20          40
## 20 biglumis             20          40
## # ℹ 191 more rows
…
